## Interface: 90200
## X-Min-Interface: 90200
## Title: CalvoGambling
## Author: Gonzalo Luque
## Version: 1.0
## SavedVariables: Gon_Env
## Notes: A hub for all your gold gambling ingame

CalvoGambling.lua
